…
diabetes$Fruits <- as.factor(diabetes$Fruits)
diabetes$Veggies <- as.factor(diabetes$Veggies)
diabetes$HvyAlcoholConsump <- as.factor(diabetes$HvyAlcoholConsump)
diabetes$AnyHealthcare <- as.factor(diabetes$AnyHealthcare)
diabetes$NoDocbcCost <- as.factor(diabetes$NoDocbcCost)
diabetes$GenHlth <- as.factor(diabetes$GenHlth)
diabetes$DiffWalk <- as.factor(diabetes$DiffWalk)
diabetes$Sex <- as.factor(diabetes$Sex)
diabetes$Age <- as.factor(diabetes$Age)
diabetes$Education  <- as.factor(diabetes$Education)
diabetes$Income <- as.factor(diabetes$Income)
diabetes              
```

    ## # A tibble: 253,680 × 23
    ##    Diabetes_binary HighBP HighChol CholCheck   BMI Smoker Stroke
    ##    <fct>           <fct>  <fct>    <fct>     <dbl> <fct>  <fct> 
    ##  1 0               1      1        1            40 1      0     
    ##  2 0               0      0        0            25 1      0     
    ##  3 0               1      1        1            28 0      0     
    ##  4 0               1      0        1            27 0      0     
    ##  5 0               1      1        1            24 0      0     
    ##  6 0               1      1        1            25 1      0     
    ##  7 0               1      0        1            30 1      0     
    ##  8 0               1      1        1            25 1      0     
    ##  9 1               1      1        1            30 1      0     
    ## 10 0               0      0        1            24 0      0     
    ## # ℹ 253,670 more rows
    ## # ℹ 16 more variables: HeartDiseaseorAttack <fct>, PhysActivity <fct>,
    ## #   Fruits <fct>, Veggies <fct>, HvyAlcoholConsump <fct>, AnyHealthcare <fct>,
    ## #   NoDocbcCost <fct>, GenHlth <fct>, MentHlth <dbl>, PhysHlth <dbl>,
    ## #   DiffWalk <fct>, Sex <fct>, Age <fct>, Education <fct>, Income <fct>,
    ## #   diabetes_dx <fct>
``` r
# subset data set based on parameter in YAML header

#diabetes_sub <- diabetes %>% 

#                   filter(Education == params$Education)

diabetes_sub <- diabetes %>% 

                   filter(Education == "6")

diabetes_sub
```

    ## # A tibble: 107,325 × 23
    ##    Diabetes_binary HighBP HighChol CholCheck   BMI Smoker Stroke
    ##    <fct>           <fct>  <fct>    <fct>     <dbl> <fct>  <fct> 
    ##  1 0               0      0        0            25 1      0     
    ##  2 0               1      1        1            25 1      0     
    ##  3 0               1      0        1            30 1      0     
    ##  4 1               0      0        1            25 1      0     
    ##  5 0               0      1        1            33 1      1     
    ##  6 0               1      0        1            33 0      0     
    ##  7 0               0      0        0            23 0      0     
    ##  8 0               0      1        1            28 0      0     
    ##  9 0               0      0        1            32 0      0     
    ## 10 1               1      1        1            37 1      1     
    ## # ℹ 107,315 more rows
    ## # ℹ 16 more variables: HeartDiseaseorAttack <fct>, PhysActivity <fct>,
    ## #   Fruits <fct>, Veggies <fct>, HvyAlcoholConsump <fct>, AnyHealthcare <fct>,
    ## #   NoDocbcCost <fct>, GenHlth <fct>, MentHlth <dbl>, PhysHlth <dbl>,
    ## #   DiffWalk <fct>, Sex <fct>, Age <fct>, Education <fct>, Income <fct>,
    ## #   diabetes_dx <fct>
…
